## Title: Enchantrix
## Notes: Display information in item tooltips pertaining to disenchanting, prospecting, and milling results.  [<%version%>] This AddOn is licensed under the GNU GPL, see GPL.txt for details.
##
## Interface: 80200
## LoadOnDemand: 1
## Dependencies: Stubby
## OptionalDeps: !nLog, Babylonian, DebugLib, Configator, SlideBar, LibExtraTip, TipHelper, LibDataBroker
## SavedVariables: EnchantConfig, EnchantedLocal, EnchantedItemTypes, NonDisenchantablesLocal, ProspectedLocal, MillingLocal
## SavedVariablesPerCharacter: AutoDisenchantIgnoreList
##
## Version: <%version%> (<%codename%>)
## Revision: $Id$
## Author: Norganna's AddOns
## X-Part-Of: Auctioneer
## X-Category: Auction House
## X-Max-Interface: 80100
## X-URL: http://auctioneeraddon.com/
## X-Feedback: http://forums.norganna.org

##
EnxManifest.lua

Libs\Load.xml

EnxObjects.lua

EnxStrings.lua
EnxLocale.lua

Data\EnxNonDisenchant.lua

EnxSettings.lua
EnxMiniIcon.lua
EnxCommand.lua
EnxConfig.lua
EnxConstants.lua
EnxConstantsInscription.lua
EnxConstantsJewelcrafting.lua
EnxStorage.lua
EnxTooltip.lua
EnxUtil.lua
EnxAutoDisenchant.lua
EnxMain.lua

EnxAucUtil.lua
